https://raw.githubusercontent.com/nugusha/ProjectEuler-HackerRank/master/Project%20Euler%20%233%20Largest%20prime%20factor.cpp
https://raw.githubusercontent.com/FrankKair/polyglot-euler/master/src/003/p003.cr
https://raw.githubusercontent.com/mattspaulding/hacker-rank/master/HackerRank/ProjectEuler/ProjectEuler003.cs
https://raw.githubusercontent.com/FrankKair/polyglot-euler/master/src/003/p003.exs
https://raw.githubusercontent.com/FrankKair/polyglot-euler/master/src/003/p003.go
https://raw.githubusercontent.com/FrankKair/polyglot-euler/master/src/003/p003.hs
https://raw.githubusercontent.com/havelessbemore/hackerrank/master/contests/projecteuler/euler003/euler003.java
https://raw.githubusercontent.com/FrankKair/polyglot-euler/master/src/003/p003.lua
https://raw.githubusercontent.com/FrankKair/polyglot-euler/master/src/003/p003.py
https://raw.githubusercontent.com/FrankKair/polyglot-euler/master/src/003/p003.rb
https://raw.githubusercontent.com/FrankKair/polyglot-euler/master/src/003/p003.rs
https://raw.githubusercontent.com/advancedxy/hackerrank/master/project-euler/problem-3/LargestPrimeFactor.scala
https://raw.githubusercontent.com/FrankKair/polyglot-euler/master/src/003/p003.swift
