https://raw.githubusercontent.com/nayuki/Project-Euler-solutions/master/java/p109.java
https://raw.githubusercontent.com/nayuki/Project-Euler-solutions/master/python/p109.py
https://www.mathblog.dk/project-euler-109-checkout-darts/
