https://raw.githubusercontent.com/nayuki/Project-Euler-solutions/master/java/p095.java
https://raw.githubusercontent.com/nayuki/Project-Euler-solutions/master/python/p095.py
https://www.mathblog.dk/project-euler-95-longest-amicable-chain/
