https://raw.githubusercontent.com/andrewrk/hackerrank/master/the-love-letter-mystery/main.rs
https://raw.githubusercontent.com/derekhh/HackerRank/master/the-love-letter-mystery.cpp
https://raw.githubusercontent.com/MaskRay/HackerRank/master/the-love-letter-mystery.rb
