https://www.youtube.com/watch?v=1Zpe8KDOTF8
http://crackandsecure.blogspot.com/2011/05/hack-this-site-hts-javascript-2-disable.html
http://sp4hack.blogspot.com/2012/09/hack-this-site-javascript-2.html
https://blog.abhishekg.com/2011/12/javascript-mission-2-disable-javascript/
https://bitbelle.wordpress.com/2018/01/10/hackthissite-javascript-mission-solutions/
https://github.com/divyanshusahu/HackThisSite/tree/master/Javascript#mission-2
