https://raw.githubusercontent.com/To1ne/cryptopals-c/master/challenge_03/main.c
https://raw.githubusercontent.com/shierve/matasano-crypto-challenges/master/set3.cc
https://raw.githubusercontent.com/hjwp/cryptopals/master/test/cryptopals/decrypt_single_byte_xor_test.clj
https://raw.githubusercontent.com/adamenger/cryptopals-solutions/master/3/three.go
https://raw.githubusercontent.com/yaychris/cryptopals/master/src/challenge3.rs
https://raw.githubusercontent.com/Daeinar/cryptopals/master/src/c03.rs
https://raw.githubusercontent.com/jaybosamiya/cryptopals-solutions/master/set1/3/run.py
https://raw.githubusercontent.com/akalin/cryptopals-python3/master/challenge3.py
https://raw.githubusercontent.com/aklap/cryptopals-solutions/master/set_1/challenge3/solution3.py
https://raw.githubusercontent.com/ricpacca/cryptopals/master/S1C03.py
https://raw.githubusercontent.com/Lukasa/cryptopals/master/cryptopals/challenge_one/three.py
https://raw.githubusercontent.com/pmrowla/cryptopals/master/set1/challenge3.py
https://raw.githubusercontent.com/gaganpreet/matasano-crypto-1/master/p03_decode_xor.py
https://raw.githubusercontent.com/technion/matasano_challenge/master/set1/chal3/chal3.rb
https://raw.githubusercontent.com/SomMeri/matasano-cryptopals-solutions/master/src/main/java/org/meri/matasano/Set3.java
