https://raw.githubusercontent.com/gajeshbhat/HackerRank/master/Algorithmic%20Challenges/Beautiful%20Binary%20String.cpp
https://raw.githubusercontent.com/charles-wangkai/hackerrank/master/beautiful-binary-string/Solution.java
https://raw.githubusercontent.com/yznpku/HackerRank/master/solution/practice/algorithms/strings/beautiful-binary-string/solution.py
