https://raw.githubusercontent.com/tettouat/root-me_cracking/master/PE%20-%200%20protection/hints
https://thinbashane.wordpress.com/2015/10/22/root-me-pe-0-protections/
https://brianstormrage1134.wordpress.com/2018/11/18/pe-0-protection/
