https://raw.githubusercontent.com/Alackey/codeabbey-projects/master/Median%20of%20Three/src/Main.java
https://raw.githubusercontent.com/ArnoldM904/CodeAbbey_Solutions/master/Python/id041-Median_of_Three.py
https://raw.githubusercontent.com/Tempurturtul/CodeAbbey/master/C%23/MedianOfThree.cs
https://raw.githubusercontent.com/marclerodrigues/ruby_exercises/master/median_of_three.rb
https://raw.githubusercontent.com/danielmmetz/codeabbey/master/id41.hs
https://raw.githubusercontent.com/jeilow/codeabbey/master/problem_41.m
https://raw.githubusercontent.com/RyanLafferty/CodeAbbey/master/p41.c
https://raw.githubusercontent.com/mpeshehonov/Codeabbey/master/practice/%2341/index.php
https://raw.githubusercontent.com/mmcdon20/code_abbey/master/src/main/scala/Abbey041.scala
https://raw.githubusercontent.com/vinitkantrod/go-codeabbey/master/10_median_of_three/main.go
https://repl.it/@IVB107/CodeAbbey-41-1
https://raw.githubusercontent.com/SebastianHerrera/DartProblems/master/median_of_three.dart
https://repl.it/@SrProgrammer/MedianOfThree
https://rosettacode.org/wiki/Averages/Median#Haskell
https://rosettacode.org/wiki/Averages/Median#Lasso
https://rosettacode.org/wiki/Averages/Median#LiveCode
https://rosettacode.org/wiki/Averages/Median#Maxima
https://rosettacode.org/wiki/Averages/Median#MATLAB
https://rosettacode.org/wiki/Averages/Median#BaCon
https://rosettacode.org/wiki/Averages/Median#Elixir
https://rosettacode.org/wiki/Averages/Median#Elena
https://rosettacode.org/wiki/Averages/Median#Fortran
https://rosettacode.org/wiki/Averages/Median#Euphoria
https://raw.githubusercontent.com/ValeWasTaken/CodeAbbey_Solutions/master/Python/id041-Median_of_Three.py
