https://raw.githubusercontent.com/ZLester/Coderbyte-Solutions/master/Medium/18%20-%20Dash%20Insert%20II.js
https://raw.githubusercontent.com/Gamer1092/Coderbyte-Medium/Medium/Dash%20Insert%20II.cpp
https://raw.githubusercontent.com/designerGenes/CoderbyteInSwift/master/DashInsert/DashInsert.playground/Contents.swift
https://raw.githubusercontent.com/bolducp/coderbyte/master/medium/18_dash_insert.py
