https://raw.githubusercontent.com/feix/ctf-writeup/master/canyouhackit/script/solution3
https://sithlab.tistory.com/1442
https://raw.githubusercontent.com/pastelito02/Challenges-sol/master/canyouhackit/Scripts/solution3.lst
