https://exercism.io/tracks/groovy/exercises/matrix/solutions/d52e23b0c54847f8b2d546a6d95b2e80
https://exercism.io/tracks/csharp/exercises/matrix/solutions/3325de4c69c040d6b13822d2001e5bb6
https://exercism.io/tracks/java/exercises/matrix/solutions/767aa8d6cd194d799e933005706efd5b
https://exercism.io/tracks/swift/exercises/matrix/solutions/164fc5cd1e9940219806fddb623998d1
https://exercism.io/tracks/typescript/exercises/matrix/solutions/cdd490555f0e4284abc76ad57fb53462
https://exercism.io/tracks/lua/exercises/matrix/solutions/c4015535fd1248948ef33c344b703652
https://exercism.io/tracks/perl5/exercises/matrix/solutions/0c9f5273f4a3e42a24cdc742
https://exercism.io/tracks/ruby/exercises/matrix/solutions/f690800c79e7457b8f1d7a95c35e3a84
https://exercism.io/tracks/pharo-smalltalk/exercises/matrix/solutions/84ea81c6c23b421daf64e3136107d04b
https://exercism.io/tracks/nim/exercises/matrix/solutions/8e21db2d34ef4c88ad72834d2d1c41f9
