https://raw.githubusercontent.com/adityagupta1089/Codeforces-Solutions/master/P350A.py
https://raw.githubusercontent.com/nikzsaz/Codeforces-solution/master/350A-Tl.cpp
https://raw.githubusercontent.com/o-panda-o/MySolutions/master/Greedy/Code_350A_TL.java
