https://raw.githubusercontent.com/siddhism/codemonk/master/greedy/little-jhool-and-his-punishment.cpp
https://raw.githubusercontent.com/satylogin/HACKEREARTH/master/Little%20Jhool%20and%20his%20punishment.py

