https://raw.githubusercontent.com/DionysiosB/CodeForces/master/200-299/205B-LittleElephantAndSorting.cpp
https://raw.githubusercontent.com/adityagupta1089/Codeforces-Solutions/master/P205B.java
https://raw.githubusercontent.com/changyuheng/codeforces-solutions/master/205b.py
