https://www.youtube.com/watch?v=EKGBskG8APc
https://www.youtube.com/watch?v=8NwL2P0pCLg
https://ironhackers.es/en/writeups/jeeves-hackthebox/
https://largoat.uk/jeeves/
https://www.hackingarticles.in/hack-the-box-jerry-walkthrough/
https://medium.com/ctf-writeups/hack-the-box-jerry-write-up-6f045601315f
https://medium.com/@rebcesp/hackthebox-jerry-7e77a9cdf551
https://reverse-shell.net/2018/09/21/write-up-hackthebox-jerry/
https://www.youtube.com/watch?v=I7o2LPotAZA
https://resources.infosecinstitute.com/hack-the-box-htb-machines-walkthrough-series-jerry/#gref
https://0xrick.github.io/hack-the-box/jerry/
https://blog.roskyfrosky.com/hackthebox/2018/11/20/Jerry-hackthebox.html
https://codemonkeyism.co.uk/htb-jerry/
https://s1gh.sh/hackthebox-jerry-walkthrough/
https://ratil.life/hack-the-box-jerry/
https://bastijn.io/2018/Jerry-walkthrough-on-Hack-The-Box.html
https://scriptingis.life/HTB-Jerry/
https://fwhibbit.es/htb-write-up-jerry
https://offsecsword.com/cat-jerrys
https://www.youtube.com/watch?v=An9tWlR26NU
