https://raw.githubusercontent.com/DionysiosB/CodeForces/master/01-99/48A-RockPaperScissors.cpp
https://codeforces.com/problemset/submission/48/216297
https://codeforces.com/problemset/submission/48/47088939
https://codeforces.com/problemset/submission/48/339768
https://codeforces.com/problemset/submission/48/219018
https://codeforces.com/problemset/submission/48/17928420
https://codeforces.com/problemset/submission/48/49330942
https://codeforces.com/problemset/submission/48/216205
https://codeforces.com/problemset/submission/48/217689
http://codeforces.com/contest/48/submission/58926614
http://codeforces.com/contest/48/submission/15913509
http://codeforces.com/contest/48/submission/2680279
http://codeforces.com/contest/48/submission/3234868
http://codeforces.com/contest/48/submission/35863401
http://codeforces.com/contest/48/submission/35870649
http://codeforces.com/contest/48/submission/35871259
http://codeforces.com/contest/48/submission/35871307
http://codeforces.com/contest/48/submission/35874748
http://codeforces.com/contest/48/submission/35874856
http://codeforces.com/contest/48/submission/35875412
http://codeforces.com/contest/48/submission/35875501
http://codeforces.com/contest/48/submission/56015763
http://codeforces.com/contest/48/submission/217689
http://codeforces.com/contest/48/submission/217716
http://codeforces.com/contest/48/submission/51103524
http://codeforces.com/contest/48/submission/57907060
http://codeforces.com/contest/48/submission/13601618
http://codeforces.com/contest/48/submission/68445995
http://codeforces.com/contest/48/submission/59326493
http://codeforces.com/contest/48/submission/54537719
http://codeforces.com/contest/48/submission/14786701
http://codeforces.com/contest/48/submission/339768
http://codeforces.com/contest/48/submission/61386810
http://codeforces.com/contest/48/submission/29620891
http://codeforces.com/contest/48/submission/41982769
http://codeforces.com/contest/48/submission/55424691
http://codeforces.com/contest/48/submission/5088334
http://codeforces.com/contest/48/submission/55424684
http://codeforces.com/contest/48/submission/4446266
http://codeforces.com/contest/48/submission/60939417
http://codeforces.com/contest/48/submission/68564977
http://codeforces.com/contest/48/submission/709189
http://codeforces.com/contest/48/submission/55424675
http://codeforces.com/contest/48/submission/60484819
http://codeforces.com/contest/48/submission/66569389
http://codeforces.com/contest/48/submission/13601609
http://codeforces.com/contest/48/submission/253626
http://codeforces.com/contest/48/submission/221289
http://codeforces.com/contest/48/submission/4483735
