https://raw.githubusercontent.com/mpillar/codeeval/master/0-easy/armstrong-numbers/Main.java
https://raw.githubusercontent.com/leaen/Codeeval-solutions/master/armstrong-numbers.lua
https://raw.githubusercontent.com/pascal-bourut/codeeval-challenges/master/easy/82%20-%20Armstrong%20numbers/82.js
https://raw.githubusercontent.com/pascal-bourut/codeeval-challenges/master/easy/82%20-%20Armstrong%20numbers/82.php
https://raw.githubusercontent.com/leaen/Codeeval-solutions/master/armstrong-numbers.py
https://raw.githubusercontent.com/koshkarov/solutions-for-codeeval-tasks/master/ArmstrongNumbers.cs
