https://raw.githubusercontent.com/sile/euler.rs/master/euler_02/src/problem055.rs
https://raw.githubusercontent.com/nayuki/Project-Euler-solutions/master/java/p055.java
https://raw.githubusercontent.com/kdungs/euler/master/055/euler_55.py
https://www.mathblog.dk/project-euler-55-how-many-lychrel-numbers-are-there-below-ten-thousand/
https://raw.githubusercontent.com/nayuki/Project-Euler-solutions/blob/master/haskell/p055.hs
