https://raw.githubusercontent.com/ArnoldM904/CodeAbbey_Solutions/master/Python/id048-Collatz_Sequence.py
https://raw.githubusercontent.com/Chainsawkitten/CodeAbbeyProblems/master/src/Problem%2048/Problem%2048.cpp
https://raw.githubusercontent.com/Tempurturtul/CodeAbbey/master/C%23/CollatzSequence.cs
https://raw.githubusercontent.com/John-Russell/CodeAbbey/master/Collatz%20Sequence.rb
https://raw.githubusercontent.com/KlaudioVito/CodeAbbey/master/CollatzSequence.java
https://raw.githubusercontent.com/chriswood/codeabbey/master/caid48.lisp
https://raw.githubusercontent.com/mmcdon20/code_abbey/master/src/main/scala/Abbey048.scala
https://raw.githubusercontent.com/beesmart/codeAbbey_problems/master/collatzSequence.js
https://raw.githubusercontent.com/JesseClarkND/codeabbey_in_C-NET/master/Collatz%20Sequence
https://gitlab.com/CodeArtisan/codeabbey/raw/master/problem_48/solution.rkt
https://raw.githubusercontent.com/Mister-GoodwinLu/CodeAbbey/master/collatz%20sequence
