https://www.youtube.com/watch?v=1UGxjqTnuyo
https://www.hackingarticles.in/hack-the-box-challenge-sneaky-walkthrough/
https://www.jdksec.com/hack-the-box/sneaky
https://s1gh.sh/hackthebox-sneaky-walkthrough/
