https://github.com/CyrilP/ThisisLegal
https://www.youtube.com/watch?v=0QZ-ehFirx8
https://github.com/shrv/ThisIsLegal/blob/master/README.md
http://juancho056.blogspot.com/2016/01/thisislegal-chanllenge-5-enunciado.html
