https://blog.nviso.eu/2019/06/07/solving-a-ctf-challenge-exploiting-a-buffer-overflow-video/
https://dev.to/atan/solving-a-ctf-challenge-2nbp
https://www.hackerone.com/blog/capture-the-flag-solution-reversing-the-password
https://ironhackers.es/en/writeups/resolviendo-retos-de-ctf-parte-1/
https://medium.com/bugbountywriteup/solving-each-and-every-fb-ctf-challenge-part-1-4bce03e2ecb0
https://raw.githubusercontent.com/Probely/CTF-Challenges/master/Pwnable/100-HighwayDisplay/SOLUTION.md
https://raw.githubusercontent.com/Probely/CTF-Challenges/master/WebHacking/100-BadPlugin/SOLUTION.md
https://www.youtube.com/watch?v=tWCrJ1b5wqU
https://www.youtube.com/watch?v=dWfUxWCwX9k
https://www.youtube.com/watch?v=ugNTZFnlWLQ
