https://raw.githubusercontent.com/nikzsaz/Codeforces-solution/master/131C-TheWorldIsTheatre.cpp
https://raw.githubusercontent.com/mkirsche/Codeforces/master/131-C/131-C-2849356.java
https://raw.githubusercontent.com/Erfaniaa/Codeforces/master/131C-TheWorldisaTheatre.pas
