https://raw.githubusercontent.com/ZLester/Coderbyte-Solutions/master/Medium/06%20-%20String%20Scramble.js
https://raw.githubusercontent.com/designerGenes/CoderbyteInSwift/master/StringScramble/StringScramble.playground/Contents.swift
https://raw.githubusercontent.com/bolducp/coderbyte/master/medium/06_string_scramble.py
