https://raw.githubusercontent.com/nayuki/Project-Euler-solutions/master/java/p129.java
https://raw.githubusercontent.com/nayuki/Project-Euler-solutions/master/python/p129.py
https://www.mathblog.dk/project-euler-129-minimal-repunits/
