https://raw.githubusercontent.com/nayuki/Project-Euler-solutions/master/java/p111.java
https://raw.githubusercontent.com/nayuki/Project-Euler-solutions/master/python/p111.py
https://www.mathblog.dk/project-euler-111-10-digit-primes-repeated-digits/
