https://raw.githubusercontent.com/DionysiosB/CodeAbbey/master/FibonacciDivisibilityAdvanced.cpp
https://raw.githubusercontent.com/ArnoldM904/CodeAbbey_Solutions/master/Python/id071-Fibonacci_Divisibility_Advanced.py
https://raw.githubusercontent.com/igor-kutepov/codeabbey/master/src/main/java/com/kutepov/samples/codeabbey/FibonacciDivisibilityAdvanced.java
https://raw.githubusercontent.com/JesseClarkND/codeabbey_in_C-NET/master/Fibonacci%20Divisibility%20Advanced
https://gitlab.com/CodeArtisan/codeabbey/raw/master/problem_71/solution.rkt
https://pastebin.com/raw/TUgW5RPR
https://pastebin.com/raw/yipT7fRD
https://pastebin.com/raw/xPhh68dA
https://pastebin.com/raw/7grfVMiq
https://pastebin.com/raw/4x8MY3Ab
https://pastebin.com/raw/dSwLM6vw
https://pastebin.com/raw/eRPMfzza
https://pastebin.com/raw/vZmsXrJ3
https://pastebin.com/raw/nw25NgyF
https://pastebin.com/raw/2hVwRKRB
