[0 , 1 , 2]
[1, [2, 3, 4, 5, 6, 7], 8]
[0, 2, [[2, 3], 8, 100, 4, [[[50]]]], -2]
[1, [2, [[3]], [4, [[5]]], 6, 7], 8]
[0, 2, [[2, 3], 8, [[100]], None, [[None]]], -2]
[None, [[[None]]], None, None, [[None, None], None], None]
[[()]]
['0', ['1', '2']]
