https://raw.githubusercontent.com/DionysiosB/CodeAbbey/master/DuelChances.cpp
https://raw.githubusercontent.com/igor-kutepov/codeabbey/master/src/main/java/com/kutepov/samples/codeabbey/DuelChances.java
https://gist.githubusercontent.com/Postmodernist/6da78219cca97fea7527f1f54af84a96/raw/43937fa71ee3c48e4457e0d915e0ed1948af66e6/racing_duel.py
https://raw.githubusercontent.com/JesseClarkND/codeabbey_in_C-NET/master/Duel%20Chances
