https://raw.githubusercontent.com/nayuki/Project-Euler-solutions/master/java/p132.java
https://raw.githubusercontent.com/nayuki/Project-Euler-solutions/master/python/p132.py
https://www.mathblog.dk/project-euler-132-large-repunit-factors/
