https://raw.githubusercontent.com/LFlare/picoctf_2017_writeup/master/cryptography/hash101/README.md
https://passionforpentesting.com/2017/07/02/picoctf-2017-hash101/
https://raw.githubusercontent.com/BOAKGP/CTF-Writeups/master/PicoCTF%202017/Level%201/Cryptography/Hash101/README.md
