https://raw.githubusercontent.com/Daeinar/cryptopals/master/src/c27.rs
https://raw.githubusercontent.com/jaybosamiya/cryptopals-solutions/master/set4/27/AES_128.py
https://raw.githubusercontent.com/jaybosamiya/cryptopals-solutions/master/set4/27/oracles.py
https://raw.githubusercontent.com/jaybosamiya/cryptopals-solutions/master/set4/27/run.py
https://raw.githubusercontent.com/akalin/cryptopals-python3/master/challenge27.py
https://raw.githubusercontent.com/technion/matasano_challenge/master/set4/chal27/chal27.rb
