https://raw.githubusercontent.com/rootulp/exercism/master/java/hamming/src/main/java/Hamming.java
https://raw.githubusercontent.com/rootulp/exercism/master/javascript/hamming/hamming.js
https://raw.githubusercontent.com/RitamDey/exercism-solutions/master/php/hamming/hamming.php
https://raw.githubusercontent.com/rootulp/exercism/master/python/hamming/hamming.py
https://raw.githubusercontent.com/rootulp/exercism/master/ruby/exercises/hamming/hamming.rb
https://exercism.io/tracks/sml/exercises/hamming/solutions/24c7645601f64ca7aa58fd6f2d539114
https://exercism.io/tracks/elm/exercises/hamming/solutions/b9d110874bcb4a049150d842fe1924b9
https://exercism.io/tracks/scala/exercises/hamming/solutions/a4dcd498bbb125db94ffab4d
https://exercism.io/tracks/erlang/exercises/hamming/solutions/ba8394d4e2f2d07d0c06fb23
https://exercism.io/tracks/go/exercises/hamming/solutions/adb63e09ce454c5eaa955375bdfde4ac
https://exercism.io/tracks/perl5/exercises/hamming/solutions/dcf2dd1ba2c24c42a472c18e163f1cb7
https://exercism.io/tracks/cpp/exercises/hamming/solutions/679bd2f3a96b41f7a7efc6f846e80c76
https://exercism.io/tracks/python/exercises/hamming/solutions/a6b1dae9af5e478596a1395b56eaadeb
https://exercism.io/tracks/haskell/exercises/hamming/solutions/180f785022274f0aaa8fd0f762777614
https://exercism.io/tracks/r/exercises/hamming/solutions/b60ae2b1e9b045dcbdf531a790f32396
https://exercism.io/tracks/rust/exercises/hamming/solutions/3dca1f894ba7446cbdc22b6bf72b47e7
https://exercism.io/tracks/delphi/exercises/hamming/solutions/14af7430bb6d475197d345121fa0fac8
https://exercism.io/tracks/fsharp/exercises/hamming/solutions/a8f2f1de29964deeb7c2ffe747aa0c8d
https://exercism.io/tracks/d/exercises/hamming/solutions/c56cba07f73144f18945721982e6eabd
https://exercism.io/tracks/clojure/exercises/hamming/solutions/4c861a47ec5a440487d088460b26a8ed
https://exercism.io/tracks/swift/exercises/hamming/solutions/f2419467e0234ba8a5d6538b2a8002ac
https://exercism.io/tracks/elixir/exercises/hamming/solutions/51412e7690fc4ba4b0d703aebe21d63c
https://exercism.io/tracks/cfml/exercises/hamming/solutions/ba74f9716beb4b83bbc7bafe657fa4c0
https://exercism.io/tracks/lua/exercises/hamming/solutions/acae7c6029d94602ac629a1fbfc51ba0
https://exercism.io/tracks/julia/exercises/hamming/solutions/c9d1da4b78f94918b618854bffadce20
https://exercism.io/tracks/csharp/exercises/hamming/solutions/2a1510d5af974d7c9a835bc7b8a0f4f9
https://exercism.io/tracks/nim/exercises/hamming/solutions/7d3e9d495dcb4f3b96684ebfa9013a8f
