https://raw.githubusercontent.com/c650/hackerrank-solutions/master/Algorithms/Implementation/picking-numbers.cpp
https://raw.githubusercontent.com/rshaghoulian/HackerRank_solutions/master/General%20Programming/Basic%20Programming/Picking%20Numbers/Solution.java
https://raw.githubusercontent.com/danhenriquesc/hackerrank/master/algorithms/implementation/picking_numbers.php
