24
AADD
DBEDCCBCCADEDAADFBBA
DBDAACEECEEFBCFACCBDADCBEEDAB
BAFFAEAACFCCACBCEFBDFEDBBEF
AECBFDBECDACCBFDFCAFFDCEEEEAD
ADEFFFCBDDDADECCCFEECBEFDBDADCAFD
FFADED
AFADBCEADEDCFCBEADE
DBABBBDEE
CBF
CDDCFBEFCAEADCEECFDDAADCFE
BDFEBBFABCDDEDFAE
CBFFFCBCDBCEDEFAFABDADAFAAABADC
ECABDA
EBCFBABBD
FBACCFCDFEE
ABCAABCADADBFEFEDFEDB
ECFBDACDBADACECFBEFCFAEFCFEBACFDA
ADAFA
AACBBFCDCAAABCBCCEFFEABDCAE
ABEDFCABFCDBBFDBCFDEDDFBDBD
BDAAEEADFDCFBDFCBDDAFCFFEDFCDEACC
FDB
CAAFFDADDCAFCB
