https://raw.githubusercontent.com/codejoydo/codeforces/master/282a.c
https://raw.githubusercontent.com/fuwutu/CodeForces/master/282B%20-%20Painting%20Eggs.cpp
https://raw.githubusercontent.com/adityagupta1089/Codeforces-Solutions/master/P282B.java
