https://raw.githubusercontent.com/BirkhoffLee/wechall/master/exploit/Limited%20Access%20Too/README.md
https://raw.githubusercontent.com/stefanoschrs/wechall/master/Exploit/Exploit%20-%20Limited%20Access
https://gist.github.com/trietptm/5557053
https://gist.github.com/trietptm/5519932
https://gist.github.com/trietptm/5569359
https://gist.github.com/trietptm/5562110
https://trungduc1104.wordpress.com/2014/05/28/wechall-limited-access-12/
http://z0mbi2.tistory.com/54
http://www.nowhere.co.jp/blog/archives/20141128-213307.html
https://medium.com/bugbountywriteup/wechall-wargame-solutions-76f60ea39b16
https://pengyang.me/2018/08/19/wechall/#25limited-access
