https://www.youtube.com/watch?v=qyXgX6VELHc
https://www.youtube.com/watch?v=QnJbNKJX21o
https://www.youtube.com/watch?v=9yS7mr977so
https://www.youtube.com/watch?v=Vsu2GX0glJk
https://www.youtube.com/watch?v=iJeJ072UejI
https://www.youtube.com/watch?v=DSMVlwfsNHc
https://www.youtube.com/watch?v=a-0WiIy1ghA
https://www.youtube.com/watch?v=pYO3OUr4PIo
https://www.youtube.com/watch?v=5yKpkcVY6yM
https://www.youtube.com/watch?v=1vDTujNVKGM
