https://github.com/luceatnobis/challenges/tree/master/net-force.nl/fun
https://nopsrus.blogspot.com.co/2012/06/solution-for-net-force.html
https://raw.githubusercontent.com/djcomidi/netforce/master/javascript/level107/solution.py
