https://github.com/lc4t/OtherFiles/blob/master/md/WeChall.md
http://sp4hack.blogspot.com.co/2012/10/we-chall-hi.html
https://medium.com/bugbountywriteup/wechall-wargame-solutions-76f60ea39b16
https://pengyang.me/2018/08/19/wechall/#37hi
