https://raw.githubusercontent.com/luceatnobis/challenges/master/hacker.org/xfactor/xfactor.pl
http://hackerorgsolution.blogspot.com.co/2014/10/the-x-factor.html
https://raw.githubusercontent.com/charles-wangkai/hacker.org/master/challenge/TheXFactor.py
