https://exercism.io/tracks/vimscript/exercises/bob/solutions/ac051be995524031bd282989c289d416
https://exercism.io/tracks/cpp/exercises/bob/solutions/05cd4d916c694cfc91ddc369f28c1764
https://exercism.io/tracks/csharp/exercises/bob/solutions/ad765e2b32f14604a0ed94096366a087
https://exercism.io/tracks/java/exercises/bob/solutions/f9786e079194413b8fa5ceca73f5bb87
https://exercism.io/tracks/bash/exercises/bob/solutions/fa5a9cb3ee654c778a3928cd876a9adc
https://exercism.io/tracks/clojure/exercises/bob/solutions/2ac48ec4d27240e2be228bc9062ab396
https://exercism.io/tracks/coffeescript/exercises/bob/solutions/0b77f3b760ad42a287564cebdc999697
https://exercism.io/tracks/common-lisp/exercises/bob/solutions/faf779b887bc402284f5f77f29205140
https://exercism.io/tracks/crystal/exercises/bob/solutions/c33c911806b34ff29b38209a4a3e2c99
https://exercism.io/tracks/d/exercises/bob/solutions/37d1209b2b3049d2be603665af6f8f79
https://exercism.io/tracks/dart/exercises/bob/solutions/130107a57f474eba94dedd2ed10c7edd
https://exercism.io/tracks/delphi/exercises/bob/solutions/5cddde56a25f40acbbae8946c361b2ad
https://exercism.io/tracks/elixir/exercises/bob/solutions/4a260a12128b4ba880b4180c3df7e91e
https://exercism.io/tracks/elm/exercises/bob/solutions/44a18eaae1004d81a47838aa926d85f9
