https://raw.githubusercontent.com/anomen-s/programming-challenges/master/codingame.com/easy/Horse-racing%20Duals/solve.py
https://raw.githubusercontent.com/texus/codingame/master/SingePlayer/Easy/Horse-racing%20Duals.cpp
https://raw.githubusercontent.com/pathosDev/CodinGame-Solutions/master/Puzzles/Easy/Horse-racing%20Duals/CSharp.cs
https://raw.githubusercontent.com/pathosDev/CodinGame-Solutions/master/Puzzles/Easy/Horse-racing%20Duals/Java.java
https://raw.githubusercontent.com/denvash/codingame-puzzles-solutions/master/1-Easy/Horse-racing-Hyperduals.js
https://raw.githubusercontent.com/vadim-job-hg/Codingame/master/EASY/HORSE%20RASING%20DUALS/php/horse-racing-duals.php
