https://github.com/yurket/hackerorg/blob/master/88/swirl.gif
https://raw.githubusercontent.com/charles-wangkai/hacker.org/master/challenge/Fixation.py
https://raw.githubusercontent.com/luceatnobis/challenges/master/hacker.org/fixation/read.pl
