https://raw.githubusercontent.com/rouxbuciu/Code-Challenges/master/codeabbey.com/double%20dice%20roll.py
https://raw.githubusercontent.com/Maximization/CodeAbbey/master/src/DoubleDiceRoll.java
https://raw.githubusercontent.com/AleksandrSD/CodeAbbeyProblems/master/Problem44/Program.cs
https://raw.githubusercontent.com/YetAnotherMinion/YAMScratch/master/CodeAbbey/c-sol/src/44.c
https://raw.githubusercontent.com/mmcdon20/code_abbey/master/src/main/scala/Abbey044.scala
https://raw.githubusercontent.com/JesseClarkND/codeabbey_in_C-NET/master/Double%20Dice%20Roll
https://www.hackster.io/news/counting-cards-with-opencv-to-build-a-blackjack-playing-robot-3f059f8ca814
https://raw.githubusercontent.com/ValeWasTaken/CodeAbbey_Solutions/master/Python/id044-Double_Dice_Roll.py
