https://raw.githubusercontent.com/anomen-s/programming-challenges/master/codingame.com/easy/MIME%20Type/solve.py
https://raw.githubusercontent.com/texus/codingame/master/SingePlayer/Easy/MIME%20Type.cpp
https://raw.githubusercontent.com/pathosDev/CodinGame-Solutions/master/Puzzles/Easy/MIME%20Type/CSharp.cs
https://raw.githubusercontent.com/pathosDev/CodinGame-Solutions/master/Puzzles/Easy/MIME%20Type/Java.java
https://raw.githubusercontent.com/vadim-job-hg/Codingame/master/EASY/MYME%20TYPE/php/mime-type.php
