https://raw.githubusercontent.com/p1o2p3u1/WeChall/master/Training/PrimeFactory.md
https://raw.githubusercontent.com/BirkhoffLee/wechall/master/exploit/Prime%20Factory/prime.py
https://raw.githubusercontent.com/arma26/challenge/master/wechall.py
https://raw.githubusercontent.com/james9909/PracticeCTF/master/WeChall/Prime-Factory/Solution.py
https://m.blog.naver.com/PostView.nhn?blogId=dual5651&logNo=60131481588&proxyReferer=https%3A%2F%2Fwww.google.com.co%2F
https://blog.csdn.net/xuqi7/article/details/49789045
https://code1018.tistory.com/86
https://qkqhxla1.tistory.com/216
https://z0mbi2.tistory.com/52
https://gyeongje.tistory.com/248
http://byd.dropsec.xyz/2016/03/04/WeChall_writeup/#Prime-Factory
https://medium.com/secttp/wechall-prime-factory-438175d03296
https://pengyang.me/ctf/2018/08/19/wechall.html
http://www.voidcn.com/article/p-fgspkgyb-z.html
