https://phamcongit.wordpress.com/2017/09/27/challenge-1-root-me-html-disabled-buttons/
https://cysecguide.blogspot.com/2018/04/root-me-write-up-html-disabled-buttons.html
http://khansalmanblog.blogspot.com/2018/07/root-me.html
http://hackinblood.com/web-client-root-me/
https://www.cnblogs.com/deen-/p/7640478.html
https://www.youtube.com/watch?v=2crbegaqwGw
https://jgkang.space/security/write-up/root-me.org/web-client/2018/04/12/root-me-org-html-disabled-buttons.html
https://looka149.tistory.com/entry/rootmeHTML-disabled-buttons
https://duwjdtn11.tistory.com/167
http://lhhxy.cn/index.php/2018/04/01/root-me-web-client-writeup/
https://www.youtube.com/watch?v=eWMJDhy-SmA
https://www.youtube.com/watch?v=9mdzUtdYWHw
https://codeasy.nl/hacking/root-me-antwoorden/html-disabled-buttons/
https://www.youtube.com/watch?v=AyMePTM-J3E
