https://raw.githubusercontent.com/nayuki/Project-Euler-solutions/master/mathematica/p197.mathematica
https://raw.githubusercontent.com/nayuki/Project-Euler-solutions/master/java/p197.java
https://raw.githubusercontent.com/nayuki/Project-Euler-solutions/master/python/p197.py
