https://raw.githubusercontent.com/ArnoldM904/CodeAbbey_Solutions/master/Python/id081-Bit_Count.py
https://gist.githubusercontent.com/camertron/4236029/raw/18c94124877896cee34f03a20a80405ded0e8de8/count_ones.rb
https://raw.githubusercontent.com/DionysiosB/CodeAbbey/master/BitCount.cpp
https://raw.githubusercontent.com/KlaudioVito/CodeAbbey/master/BitCount.java
https://raw.githubusercontent.com/danielmmetz/codeabbey/master/id81.hs
https://raw.githubusercontent.com/AleksandrSD/CodeAbbeyProblems/master/Problem81/Program.cs
https://gist.githubusercontent.com/mscdex/2381ff505778a987cc37/raw/27e232e92fc684f05a6f53a529b872dd9b69fdf2/bitCount.js
https://raw.githubusercontent.com/tangledhelix/practical-c-programming/master/chap_11/11-4/bitcounter.c
https://gist.githubusercontent.com/michael-schubert/9f4672950373f3645c009ce6fff321b1/raw/551cc0eb724bf90671d4f1181848064b393b85d8/bits.erl
https://raw.githubusercontent.com/mjeanroy/coursera-functional-programming/master/week4/patmat/src/main/scala/patmat/Huffman.scala
https://raw.githubusercontent.com/JesseClarkND/codeabbey_in_C-NET/master/Bit%20Count
https://gitlab.com/CodeArtisan/codeabbey/raw/master/problem_81/solution.rkt
https://raw.githubusercontent.com/johnfredswift/CodeAbbey/master/ProblemsCode/BitCount.go
