https://raw.githubusercontent.com/igor-kutepov/codeabbey/master/src/main/java/com/kutepov/samples/codeabbey/BrainfuckInterpreter.java
https://raw.githubusercontent.com/Chainsawkitten/CodeAbbeyProblems/master/src/Problem%2086/Problem%2086.cpp
https://raw.githubusercontent.com/pocmo/Python-Brainfuck/master/brainfuck.py
https://gist.githubusercontent.com/ingramj/69910/raw/c5f101749a3ff41e73314d0fc87cb66cf1f4b535/brainfuck.rb
https://gist.githubusercontent.com/maxcountryman/1699708/raw/746c13d0c1a85e33393c9cc268ff615528a67e5a/bf.c
https://raw.githubusercontent.com/j5ik2o/brainfuck-scala/master/src/main/scala/com/github/j5ik2o/brainfuck/BrainfuckParser.scala
https://raw.githubusercontent.com/skilldrick/brainfuck-js/master/js/brainfuck.js
https://raw.githubusercontent.com/dotzero/brainfuck-php/master/src/Brainfuck.php
https://raw.githubusercontent.com/pyr/brainfuck/master/src/brainfuck/compiler.clj
https://raw.githubusercontent.com/Malkaroee/Perl-BrainFuck-interpreter/master/Brainfuck.pl
https://raw.githubusercontent.com/JesseClarkND/codeabbey_in_C-NET/master/Brainfuck%20Interpreter
https://raw.githubusercontent.com/ArnoldM904/CodeAbbey_Solutions/master/Brainfuck/id114-Tricky_Printing.bf
