https://exercism.io/tracks/bash/exercises/meetup/solutions/6088ebe563824e9b8eb9d67e62b13c91
https://exercism.io/tracks/c/exercises/meetup/solutions/308147d29d0c46c2bb6cb910f14a1f32
https://exercism.io/tracks/clojure/exercises/meetup/solutions/e11785af4e6e42abbb2591a06fc7cb60
https://exercism.io/tracks/common-lisp/exercises/meetup/solutions/8e2eb93864ff4ee0b31701a30d828f3e
https://exercism.io/tracks/cpp/exercises/meetup/solutions/cf3505b013924e4fb3b975b17c8bb80c
https://exercism.io/tracks/crystal/exercises/meetup/solutions/21550e41d1734338985dd9ae78c62088
https://exercism.io/tracks/csharp/exercises/meetup/solutions/5c103d5c3c0b4b40a05f53a8259d847b
https://exercism.io/tracks/delphi/exercises/meetup/solutions/976e93586f7446bc87d16e8a53d36474
https://exercism.io/tracks/go/exercises/meetup/solutions/cb3ae0d363204d2b945b8a8690f8c77c
https://exercism.io/tracks/python/exercises/meetup/solutions/58facafea91b4fa38e789d945f6cad95
https://exercism.io/tracks/elixir/exercises/meetup/solutions/017b44b18b65496a96928cfc1085da19
https://exercism.io/tracks/erlang/exercises/meetup/solutions/10f6319a44844233a7470bc5b97afe04
https://exercism.io/tracks/fsharp/exercises/meetup/solutions/6a43e13fd3834e5ea3b34836a41e2a15
https://exercism.io/tracks/haskell/exercises/meetup/solutions/e4425e3845dd487ab7b3157eeabca09d
https://exercism.io/tracks/java/exercises/meetup/solutions/74abc41883e54bedbd74f3fb422f7c5f
https://exercism.io/tracks/javascript/exercises/meetup/solutions/5b7aa7a2c74c4c3e8a4a9d06514a3a6a
