http://sp4hack.blogspot.com/2012/10/we-chall-training-encodings-i.html
https://gist.githubusercontent.com/trietptm/5661740/raw/f00c2fd5e2a29be924f9abff61b1a2f32d31e55b/binary_to_7_bit_ascii_decoding.as
https://github.com/BirkhoffLee/wechall/tree/master/exploit/Encodings%20URL
https://gist.github.com/trietptm/5661272
https://sithlab.tistory.com/1095
https://www.cnblogs.com/WangAoBo/p/6368519.html
https://raw.githubusercontent.com/james9909/PracticeCTF/master/WeChall/Encodings-1/Solution.py
https://pengyang.me/ctf/2018/08/19/wechall.html
www.voidcn.com/article/p-udgqowsn-st.html
