https://raw.githubusercontent.com/ysmolsky/cryptopals-matasano-solutions/master/12/main.go
https://raw.githubusercontent.com/Daeinar/cryptopals/master/src/c12.rs
https://raw.githubusercontent.com/jaybosamiya/cryptopals-solutions/master/set2/12/run.py
https://raw.githubusercontent.com/akalin/cryptopals-python3/master/challenge12.py
https://raw.githubusercontent.com/technion/matasano_challenge/master/set2/chal12/chal12.rb
