https://raw.githubusercontent.com/AndyCYao/codeabbey/master/CA_prob_121_Insertion_Sort.py
https://gist.githubusercontent.com/felipernb/3307444/raw/9abab61076450f1fa7c10405aba1318faacfca15/InsertionSort.java
https://gist.githubusercontent.com/maksymddd/dd0f07c7641cfd118267/raw/d7964e3d6c6dd9635681e137eaf77487dd3860f4/insertion_sort.rb
https://gist.githubusercontent.com/JerryBian/3214156/raw/4e6ecb997da45410b47e2f63d5e789327c388ca7/gistfile1.cs
https://gist.githubusercontent.com/elleryq/305b308fc98d72ace9ae/raw/fdb9bfcbe4298e457a757e0d9e6d85190aa39673/insertionsort.cpp
https://gist.githubusercontent.com/Jaskirat/2013150/raw/a48f1d8251e40925da6d543555248d3086c3a968/insertion-sort.clj
https://gist.githubusercontent.com/Konstantinos-infogeek/58e4d9188ddb7568cc952988ad7d339c/raw/009fe397129872d5132d8db911aa5425274956d1/Insertion%2520sort.php
https://gist.githubusercontent.com/mzimecki/6953706/raw/305a7ef62390df4e284a3a972eab72b0a1bd8edc/InsertionSort.scala
https://stackoverflow.com/questions/500607/what-are-the-lesser-known-but-useful-data-structures?fbclid=IwAR1Ua5oadvpgqLCQMLGRkoLOUJRAiOfqTv0DpwZHCo0tO-Kdjx9ntN1SU4U
http://www.rosettacode.org/wiki/Sorting_algorithms/Insertion_sort#360_Assembly
http://www.rosettacode.org/wiki/Sorting_algorithms/Insertion_sort#ACL2
http://www.rosettacode.org/wiki/Sorting_algorithms/Insertion_sort#ActionScript
http://www.rosettacode.org/wiki/Sorting_algorithms/Insertion_sort#Ada
http://www.rosettacode.org/wiki/Sorting_algorithms/Insertion_sort#ALGOL_68
http://www.rosettacode.org/wiki/Sorting_algorithms/Insertion_sort#ALGOL_W
http://www.rosettacode.org/wiki/Sorting_algorithms/Insertion_sort#ARM_Assembly
http://www.rosettacode.org/wiki/Sorting_algorithms/Insertion_sort#AutoHotkey
http://www.rosettacode.org/wiki/Sorting_algorithms/Insertion_sort#AWK
http://www.rosettacode.org/wiki/Sorting_algorithms/Insertion_sort#BASIC_2
http://www.rosettacode.org/wiki/Sorting_algorithms/Insertion_sort#Clojure
http://www.rosettacode.org/wiki/Sorting_algorithms/Insertion_sort#CMake
http://www.rosettacode.org/wiki/Sorting_algorithms/Insertion_sort#COBOL
http://www.rosettacode.org/wiki/Sorting_algorithms/Insertion_sort#Common_Lisp
http://www.rosettacode.org/wiki/Sorting_algorithms/Insertion_sort#D
http://www.rosettacode.org/wiki/Sorting_algorithms/Insertion_sort#Delphi
http://www.rosettacode.org/wiki/Sorting_algorithms/Insertion_sort#E
http://www.rosettacode.org/wiki/Sorting_algorithms/Insertion_sort#EasyLang
http://www.rosettacode.org/wiki/Sorting_algorithms/Insertion_sort#Eiffel
http://www.rosettacode.org/wiki/Sorting_algorithms/Insertion_sort#Elena
http://www.rosettacode.org/wiki/Sorting_algorithms/Insertion_sort#Emacs_Lisp
http://www.rosettacode.org/wiki/Sorting_algorithms/Insertion_sort#Erlang
http://www.rosettacode.org/wiki/Sorting_algorithms/Insertion_sort#ERRE
http://www.rosettacode.org/wiki/Sorting_algorithms/Insertion_sort#Euphoria
http://www.rosettacode.org/wiki/Sorting_algorithms/Insertion_sort#F.23
http://www.rosettacode.org/wiki/Sorting_algorithms/Insertion_sort#Forth
http://www.rosettacode.org/wiki/Sorting_algorithms/Insertion_sort#Fortran
http://www.rosettacode.org/wiki/Sorting_algorithms/Insertion_sort#FreeBASIC
http://www.rosettacode.org/wiki/Sorting_algorithms/Insertion_sort#GAP
http://www.rosettacode.org/wiki/Sorting_algorithms/Insertion_sort#Go
http://www.rosettacode.org/wiki/Sorting_algorithms/Insertion_sort#zkl
http://www.rosettacode.org/wiki/Sorting_algorithms/Insertion_sort#Yorick
http://www.rosettacode.org/wiki/Sorting_algorithms/Insertion_sort#XPL0
http://www.rosettacode.org/wiki/Sorting_algorithms/Insertion_sort#VBScript
http://www.rosettacode.org/wiki/Sorting_algorithms/Insertion_sort#VBA
http://www.rosettacode.org/wiki/Sorting_algorithms/Insertion_sort#Vala
http://www.rosettacode.org/wiki/Sorting_algorithms/Insertion_sort#Ursala
http://www.rosettacode.org/wiki/Sorting_algorithms/Insertion_sort#UnixPipes
http://www.rosettacode.org/wiki/Sorting_algorithms/Insertion_sort#uBasic.2F4tH
http://www.rosettacode.org/wiki/Sorting_algorithms/Insertion_sort#TI-83_BASIC
http://www.rosettacode.org/wiki/Sorting_algorithms/Insertion_sort#Tcl
http://www.rosettacode.org/wiki/Sorting_algorithms/Insertion_sort#Swift
http://www.rosettacode.org/wiki/Sorting_algorithms/Insertion_sort#Stata
http://www.rosettacode.org/wiki/Sorting_algorithms/Insertion_sort#SNOBOL4
http://www.rosettacode.org/wiki/Sorting_algorithms/Insertion_sort#Sidef
http://www.rosettacode.org/wiki/Sorting_algorithms/Insertion_sort#Seed7
http://www.rosettacode.org/wiki/Sorting_algorithms/Insertion_sort#Scheme
http://www.rosettacode.org/wiki/Sorting_algorithms/Insertion_sort#SASL
http://www.rosettacode.org/wiki/Sorting_algorithms/Insertion_sort#Rust
http://www.rosettacode.org/wiki/Sorting_algorithms/Insertion_sort#Run_BASIC
http://www.rosettacode.org/wiki/Sorting_algorithms/Insertion_sort#Ring
http://www.rosettacode.org/wiki/Sorting_algorithms/Insertion_sort#REXX
http://www.rosettacode.org/wiki/Sorting_algorithms/Insertion_sort#REBOL
http://www.rosettacode.org/wiki/Sorting_algorithms/Insertion_sort#REALbasic
http://www.rosettacode.org/wiki/Sorting_algorithms/Insertion_sort#Rascal
http://www.rosettacode.org/wiki/Sorting_algorithms/Insertion_sort#Racket
http://www.rosettacode.org/wiki/Sorting_algorithms/Insertion_sort#R
http://www.rosettacode.org/wiki/Sorting_algorithms/Insertion_sort#PureBasic
http://www.rosettacode.org/wiki/Sorting_algorithms/Insertion_sort#Prolog
http://www.rosettacode.org/wiki/Sorting_algorithms/Insertion_sort#PowerShell
http://www.rosettacode.org/wiki/Sorting_algorithms/Bogosort#PicoLisp
http://www.rosettacode.org/wiki/Sorting_algorithms/Bogosort#Phix
http://www.rosettacode.org/wiki/Sorting_algorithms/Bogosort#Perl_6
http://www.rosettacode.org/wiki/Sorting_algorithms/Bogosort#Perl
http://www.rosettacode.org/wiki/Sorting_algorithms/Bogosort#Pascal
http://www.rosettacode.org/wiki/Sorting_algorithms/Bogosort#Oz
http://www.rosettacode.org/wiki/Sorting_algorithms/Bogosort#OCaml
http://www.rosettacode.org/wiki/Sorting_algorithms/Bogosort#Oberon-2
http://www.rosettacode.org/wiki/Sorting_algorithms/Bogosort#NetRexx
http://www.rosettacode.org/wiki/Sorting_algorithms/Bogosort#Nemerle
http://www.rosettacode.org/wiki/Sorting_algorithms/Bogosort#Modula-3
http://www.rosettacode.org/wiki/Sorting_algorithms/Bogosort#MAXScript
http://www.rosettacode.org/wiki/Sorting_algorithms/Bogosort#MATLAB_.2F_Octave
http://www.rosettacode.org/wiki/Sorting_algorithms/Bogosort#Maple
http://www.rosettacode.org/wiki/Sorting_algorithms/Bogosort#Smalltalk
http://www.rosettacode.org/wiki/Sorting_algorithms/Bogosort#M4
http://www.rosettacode.org/wiki/Sorting_algorithms/Bogosort#Mathematica
http://www.rosettacode.org/wiki/Sorting_algorithms/Bogosort#Ruby
http://www.rosettacode.org/wiki/Sorting_algorithms/Bogosort#true_bogo_sort
http://www.rosettacode.org/wiki/Sorting_algorithms/Bogosort#modified_bogo_sort
http://www.rosettacode.org/wiki/Sorting_algorithms/Insertion_sort#Basic
http://www.rosettacode.org/wiki/Sorting_algorithms/Insertion_sort#Assembler_Structured_Macros
http://www.rosettacode.org/wiki/Sorting_algorithms/Insertion_sort#BBC_BASIC
http://www.rosettacode.org/wiki/Sorting_algorithms/Insertion_sort#Commodore_BASIC
http://www.rosettacode.org/wiki/Sorting_algorithms/Insertion_sort#IS-BASIC
http://www.rosettacode.org/wiki/Sorting_algorithms/Insertion_sort#Higher_Level_Version
http://www.rosettacode.org/wiki/Sorting_algorithms/Insertion_sort#Array_sort
http://www.rosettacode.org/wiki/Sorting_algorithms/Insertion_sort#String_sort
http://www.rosettacode.org/wiki/Sorting_algorithms/Insertion_sort#C
http://www.rosettacode.org/wiki/Sorting_algorithms/Insertion_sort#C.2B.2B
http://www.rosettacode.org/wiki/Sorting_algorithms/Insertion_sort#Elixir
http://www.rosettacode.org/wiki/Sorting_algorithms/Insertion_sort#Alternate_Fortran_77_version
http://www.rosettacode.org/wiki/Sorting_algorithms/Insertion_sort#Groovy
http://www.rosettacode.org/wiki/Sorting_algorithms/Insertion_sort#Oforth
http://www.rosettacode.org/wiki/Sorting_algorithms/Insertion_sort#Haskell
http://www.rosettacode.org/wiki/Sorting_algorithms/Insertion_sort#Haxe
http://www.rosettacode.org/wiki/Sorting_algorithms/Insertion_sort#HicEst
http://www.rosettacode.org/wiki/Sorting_algorithms/Insertion_sort#Icon_and_Unicon
http://www.rosettacode.org/wiki/Sorting_algorithms/Insertion_sort#Io
http://www.rosettacode.org/wiki/Sorting_algorithms/Insertion_sort#J
http://www.rosettacode.org/wiki/Sorting_algorithms/Insertion_sort#Java
http://www.rosettacode.org/wiki/Sorting_algorithms/Insertion_sort#JavaScript
http://www.rosettacode.org/wiki/Sorting_algorithms/Insertion_sort#jq
http://www.rosettacode.org/wiki/Sorting_algorithms/Insertion_sort#Julia
http://www.rosettacode.org/wiki/Sorting_algorithms/Insertion_sort#Kotlin
http://www.rosettacode.org/wiki/Sorting_algorithms/Insertion_sort#Liberty_BASIC
http://www.rosettacode.org/wiki/Sorting_algorithms/Insertion_sort#Lua
http://www.rosettacode.org/wiki/Sorting_algorithms/Insertion_sort#Maple
http://www.rosettacode.org/wiki/Sorting_algorithms/Insertion_sort#Mathematica
http://www.rosettacode.org/wiki/Sorting_algorithms/Insertion_sort#Maxima
http://www.rosettacode.org/wiki/Sorting_algorithms/Insertion_sort#MAXScript
http://www.rosettacode.org/wiki/Sorting_algorithms/Insertion_sort#ML
http://www.rosettacode.org/wiki/Sorting_algorithms/Insertion_sort#mLite
http://www.rosettacode.org/wiki/Sorting_algorithms/Insertion_sort#Standard_ML
http://www.rosettacode.org/wiki/Sorting_algorithms/Insertion_sort#Modula-3
http://www.rosettacode.org/wiki/Sorting_algorithms/Insertion_sort#Nanoquery
http://www.rosettacode.org/wiki/Sorting_algorithms/Insertion_sort#N.2Ft.2Froff
http://www.rosettacode.org/wiki/Sorting_algorithms/Insertion_sort#Sliding_method
http://www.rosettacode.org/wiki/Sorting_algorithms/Insertion_sort#Swapping_method
http://www.rosettacode.org/wiki/Sorting_algorithms/Insertion_sort#Nemerle
http://www.rosettacode.org/wiki/Sorting_algorithms/Insertion_sort#NetRexx
http://www.rosettacode.org/wiki/Sorting_algorithms/Insertion_sort#Nim
http://www.rosettacode.org/wiki/Sorting_algorithms/Insertion_sort#Objeck
http://www.rosettacode.org/wiki/Sorting_algorithms/Insertion_sort#OCaml
http://www.rosettacode.org/wiki/Sorting_algorithms/Insertion_sort#ooRexx
http://www.rosettacode.org/wiki/Sorting_algorithms/Insertion_sort#Oz
http://www.rosettacode.org/wiki/Sorting_algorithms/Insertion_sort#Qi
http://www.rosettacode.org/wiki/Sorting_algorithms/Insertion_sort#PARI.2FGP
http://www.rosettacode.org/wiki/Sorting_algorithms/Insertion_sort#Pascal
http://www.rosettacode.org/wiki/Sorting_algorithms/Insertion_sort#Perl
http://www.rosettacode.org/wiki/Sorting_algorithms/Insertion_sort#Perl_6
http://www.rosettacode.org/wiki/Sorting_algorithms/Insertion_sort#Phix
http://www.rosettacode.org/wiki/Sorting_algorithms/Insertion_sort#PHP
http://www.rosettacode.org/wiki/Sorting_algorithms/Insertion_sort#PicoLisp
http://www.rosettacode.org/wiki/Sorting_algorithms/Insertion_sort#PL.2FI
http://www.rosettacode.org/wiki/Sorting_algorithms/Insertion_sort#Functional_approach
http://www.rosettacode.org/wiki/Sorting_algorithms/Insertion_sort#Python
http://www.rosettacode.org/wiki/Sorting_algorithms/Insertion_sort#Insertion_sort_with_binary_search
