https://raw.githubusercontent.com/nayuki/Project-Euler-solutions/master/java/p053.java
https://raw.githubusercontent.com/sile/euler.rs/master/euler_02/src/problem053.rs
https://raw.githubusercontent.com/kdungs/euler/master/053/euler_53.py
https://www.mathblog.dk/project-euler-53-cnr-exceed-one-million/
https://raw.githubusercontent.com/nayuki/Project-Euler-solutions/blob/master/haskell/p053.hs
