https://raw.githubusercontent.com/exercism/xrust/master/exercises/hello-world/example.rs
https://raw.githubusercontent.com/rootulp/exercism/master/javascript/hello-world/hello-world.js
https://raw.githubusercontent.com/rootulp/exercism/master/ruby/exercises/hello-world/hello_world.rb
https://introcs.cs.princeton.edu/java/11hello/HelloWorld.java
https://www.programiz.com/c-programming/examples/print-sentence
https://esolangs.org/wiki/Hello_world_program_in_esoteric_languages
http://leto.net/code/asm/hw_assembler.php
https://en.wikibooks.org/wiki/Fortran/Hello_world
http://helloworldcollection.de/#Darkbasic
http://helloworldcollection.de/#Dart
http://helloworldcollection.de/#Algol-68
http://helloworldcollection.de/#Arendelle
http://helloworldcollection.de/#ArnoldC
https://exercism.io/tracks/python/exercises/hello-world/solutions/8c55edc2eaa34192a97a1e4967c8976b
http://helloworldcollection.de/#Actionscript%C2%A0(Flash%C2%A05)
http://helloworldcollection.de/#Agda
http://helloworldcollection.de/#8th
http://helloworldcollection.de/#Assembler%C2%A0(PDP-11)
http://helloworldcollection.de/#ATS
http://helloworldcollection.de/#Blender
https://exercism.io/tracks/c/exercises/hello-world/solutions/c1c41f5018fb4ef2afe9a5e151f69e73
https://exercism.io/tracks/ballerina/exercises/hello-world/solutions/53dd341fe58d4769aab6e6ce995732e6
https://exercism.io/tracks/bash/exercises/hello-world/solutions/875b79ce8fbd4fb28156d107721411e8
https://exercism.io/tracks/csharp/exercises/hello-world/solutions/e348f0ba8450411985d1b90da0d4aec4
https://exercism.io/tracks/cfml/exercises/hello-world/solutions/aeb5acf08e934a6cb7e4c20001d24326
https://exercism.io/tracks/clojure/exercises/hello-world/solutions/1e35a5a2460246798fd9961f85779f9c
https://exercism.io/tracks/coffeescript/exercises/hello-world/solutions/23badd2bae0c4caf96556e7dfc6d81b2
https://exercism.io/tracks/crystal/exercises/hello-world/solutions/fa7b13842c76497bb115a1bcdc50df6f
https://exercism.io/tracks/erlang/exercises/hello-world/solutions/e429c7baf1c2488982a08ce340171c40
https://exercism.io/tracks/d/exercises/hello-world/solutions/dc99a1a4cb5b46f5a21b2aaa9140bc22
https://exercism.io/tracks/delphi/exercises/hello-world/solutions/e2f7dce7881e4c0198966afafe39800f
https://exercism.io/tracks/elixir/exercises/hello-world/solutions/d4e38ac77755466faee3efa47659dbbc
https://exercism.io/tracks/fsharp/exercises/hello-world/solutions/7cbb83fdec76403d89209e07a6e71e68
https://exercism.io/tracks/groovy/exercises/hello-world/solutions/a26b87c042c4469480e300d33bb07c9a
https://exercism.io/tracks/haskell/exercises/hello-world/solutions/baa3e39c0a7f4847a538b099fbbe49f8
https://exercism.io/tracks/julia/exercises/hello-world/solutions/931682dd17454cae826276e186998710
https://exercism.io/tracks/lfe/exercises/hello-world/solutions/ea7e5eb4a7d941169cc48ae54bc1c2bb
https://exercism.io/tracks/lua/exercises/hello-world/solutions/35b3b853fe9e442bb9305d78a12e118b
https://exercism.io/tracks/pharo-smalltalk/exercises/hello-world/solutions/d66a0ed1f3e4457892a62e6de2bdbec9
https://exercism.io/tracks/objective-c/exercises/hello-world/solutions/d835309c036b490c81f27e501742bc20
https://exercism.io/tracks/perl5/exercises/hello-world/solutions/904119573a6d42b1a0d1a3d2d3c5d608
https://exercism.io/tracks/php/exercises/hello-world/solutions/d2a4b09fce2045efa035f7e2fdc47702
https://exercism.io/tracks/r/exercises/hello-world/solutions/66394f3422984b1ea162e55068599681
https://exercism.io/tracks/raku/exercises/hello-world/solutions/1d6e7a9d75f7440291f7eab137fc3e92
https://exercism.io/tracks/ruby/exercises/hello-world/solutions/7c8d5e6b436540608401e006b3a18303
https://exercism.io/tracks/sml/exercises/hello-world/solutions/d1cd8dedc6ba45ff9fd38377967edb03
https://exercism.io/tracks/swift/exercises/hello-world/solutions/876ccdd341eb491dabd5cf8030fcb70f
https://exercism.io/tracks/typescript/exercises/hello-world/solutions/4c640ff901984323a5bf6bed7fec61dc
https://exercism.io/tracks/vimscript/exercises/hello-world/solutions/da712eb09ccd433f96e58961c55e3e7c
