https://raw.githubusercontent.com/marclerodrigues/ruby_exercises/master/min_of_three.rb
https://raw.githubusercontent.com/Tempurturtul/CodeAbbey/master/C%23/MinOfThree.cs
https://raw.githubusercontent.com/JFMurphy/Codeabbey-solutions/master/Java/P005_MinOfThree.java
https://raw.githubusercontent.com/jsenne/Code-Abbey-Solutions/master/005_MinimumOfThree.js
https://raw.githubusercontent.com/snowhawk04/CodeAbbey/master/p005/main.cpp
https://raw.githubusercontent.com/chriswood/codeabbey/master/ca5.lisp
https://raw.githubusercontent.com/RyanLafferty/CodeAbbey/master/p5.c
https://raw.githubusercontent.com/mpeshehonov/Codeabbey/master/practice/%235/index.php
https://raw.githubusercontent.com/mmcdon20/code_abbey/master/src/main/scala/Abbey005.scala
https://raw.githubusercontent.com/YetAnotherMinion/YAMScratch/master/CodeAbbey/rust-sol/src/5.rs
https://raw.githubusercontent.com/vinitkantrod/go-codeabbey/master/05_min_of_three/main.go
https://gitlab.com/CodeArtisan/codeabbey/raw/master/problem_5/solution.rkt
https://raw.githubusercontent.com/MadcapJake/codeabbey-problems/master/perl6/min-of-three/min-of-three.pl
https://raw.githubusercontent.com/skilled19/sols/master/ariofdi-05-min-of-three.fs
https://raw.githubusercontent.com/skilled19/sols/master/harv/codeabbey-5-min-of-three.vb
https://raw.githubusercontent.com/ValeWasTaken/CodeAbbey_Solutions/master/Python/id005-Minimum_of_Three.py
