https://raw.githubusercontent.com/zeyuanxy/code-forces/master/contest/849/A.py
https://raw.githubusercontent.com/kantuni/Codeforces/master/849A/odds_and_ends.cpp
https://raw.githubusercontent.com/o-panda-o/MySolutions/master/Greedy/Code_849A_OddsAndEnds.java
