https://raw.githubusercontent.com/xeoneux/30-Days-of-Code/master/4%20-%20Class%20vs.%20Instance/Solution.cpp
https://raw.githubusercontent.com/xeoneux/30-Days-of-Code/master/4%20-%20Class%20vs.%20Instance/Solution.cs
https://raw.githubusercontent.com/xeoneux/30-Days-of-Code/master/4%20-%20Class%20vs.%20Instance/Solution.fs
https://raw.githubusercontent.com/xeoneux/30-Days-of-Code/master/4%20-%20Class%20vs.%20Instance/Solution.go
https://raw.githubusercontent.com/xeoneux/30-Days-of-Code/master/4%20-%20Class%20vs.%20Instance/Solution.java
https://raw.githubusercontent.com/xeoneux/30-Days-of-Code/master/4%20-%20Class%20vs.%20Instance/Solution.kt
https://raw.githubusercontent.com/xeoneux/30-Days-of-Code/master/4%20-%20Class%20vs.%20Instance/Solution.py
https://raw.githubusercontent.com/xeoneux/30-Days-of-Code/master/4%20-%20Class%20vs.%20Instance/Solution.rb
https://raw.githubusercontent.com/xeoneux/30-Days-of-Code/master/4%20-%20Class%20vs.%20Instance/Solution.swift
https://raw.githubusercontent.com/xeoneux/30-Days-of-Code/master/4%20-%20Class%20vs.%20Instance/Solution.ts
