https://raw.githubusercontent.com/girving/poker/master/exact.cpp
https://raw.githubusercontent.com/tmrdr/YACHT/master/script.js
https://raw.githubusercontent.com/BartMassey/java-yacht/master/Yacht.java
https://raw.githubusercontent.com/pepinu/practise/master/CA/Yacht%20or%20Dice%20Poker.py
https://raw.githubusercontent.com/sridatta/yacht/master/project.clj
https://raw.githubusercontent.com/shkr/puzzles/master/src/main/scala/org/shkr/puzzles/combinatorial/Yacht.scala
https://raw.githubusercontent.com/JesseClarkND/codeabbey_in_C-NET/master/Yacht%20or%20Dice%20Poker
https://coderanch.com/t/607987/java/Dice-Poker-program-rolling-dice
https://forum.cambridgecoding.com/t/programming-challenge-sorting-poker-hands/81/3
http://interactivepython.org/runestone/static/everyday/2016/02/dice.html
https://markheath.net/post/yahtzee-kata-fsharp
https://social.msdn.microsoft.com/Forums/vstudio/en-US/d4d09e60-a839-4f34-b95a-25ea3d598e87/dice-poker-how-to-code-for-two-pairs?forum=vcgeneral
https://stackoverflow.com/questions/15607828/dice-poker-score-algorithm
https://stackoverflow.com/questions/32642540/dice-poker-scoring-system-function-producing-nonetype
http://pythonfiddle.com/dice-poker/
https://www.daniweb.com/programming/software-development/threads/421870/need-help-to-compare-outcomes-of-poker-dice-game
https://www.chegg.com/homework-help/questions-and-answers/tkinter-python-problem-1-95-points-dice-poker-modify-program-import-random-import-tkinter--q16280491
https://repl.it/@viach/Yacht-or-Dice-Poker
https://exercism.io/tracks/python/exercises/yacht/solutions/f30a3feb72bb4028a99c26c7c9fd9038
