https://exercism.io/tracks/bash/exercises/grep/solutions/071873deb55745ec827b17b106381b51
https://exercism.io/tracks/elixir/exercises/grep/solutions/04bb4b5429bc420594758eb0cba13911
https://exercism.io/tracks/fsharp/exercises/grep/solutions/15993740162340389ffc76fd9bbdee04
https://exercism.io/tracks/go/exercises/grep/solutions/db5a90c7374a4cb5af7e05f7e55c7086
https://exercism.io/tracks/java/exercises/grep/solutions/96da59087d2842139c94454783cf0d37
https://exercism.io/tracks/ruby/exercises/grep/solutions/377582e7713f423a86f3cf57acf1dc42
https://exercism.io/tracks/rust/exercises/grep/solutions/f13e0755affb4537a47ca1b06c7818e9
https://exercism.io/tracks/csharp/exercises/grep/solutions/2ab3ab9a27c14b6189f4b04b2080d509
https://www.codeproject.com/Articles/1485/A-C-Grep-Application
https://blogs.msdn.microsoft.com/davethompson/2011/06/15/simple-grep-in-net/
