14
5 s k s e t x x d
5 o t r w g o s s
8 h j t s h y b y v s a e r
7 f g a i e l u g e n t
6 m q w l z a r b o e
9 s e i h o u n o t s t t e o
5 m y h e f r w k
10 e a i l x k t d l i n n i g t g
7 s r j n g j e i l g k
7 c t l b p s n i s r e
6 n p w l e p u i k e
6 h o a f c w r v s i
10 m o s m e q e u r s l b t a r l
9 u m t p f n a r e k s r n s
