https://www.youtube.com/watch?v=nnQfeJoArpM
https://cysecguide.blogspot.com/2017/10/root-me-write-up-sudo-weak-configuration.html
https://medium.com/@15520767/app-script-sudo-weak-configuration-6dbe810c654a
http://www.drow.info/?msy4Wg
https://duwjdtn11.tistory.com/179
https://www.cnblogs.com/heycomputer/articles/10536223.html
https://delt-a.github.io/root-me-app-script-sudo-weak-configuration/
https://dnwnchlrkdehgus.tistory.com/entry/Root-Me-Sudo-weak-configuration
https://github.com/Vinnyz/Root-me-challenge-App-Script/blob/master/Sudo%20-%20faiblesse%20de%20configuration
https://blog.csdn.net/weixin_30663391/article/details/99600320
http://www.athena-nature.fr/root-me/app-script/sudo-faiblesse-de-configuration
https://tgraph.io/LPE-Prakticheskie-primery-CHast-2-01-17
https://es.scribd.com/document/334345258/Root-Me-Challengen-2-Sudo
