https://raw.githubusercontent.com/c650/hackerrank-solutions/master/Algorithms/Implementation/counting-valleys.cpp
https://raw.githubusercontent.com/RyanFehr/HackerRank/master/Algorithms/Implementation/Counting%20Valleys/Solution.cs
https://raw.githubusercontent.com/RyanFehr/HackerRank/master/Algorithms/Implementation/Counting%20Valleys/Solution.java
https://raw.githubusercontent.com/RyanFehr/HackerRank/master/Algorithms/Implementation/Counting%20Valleys/Solution.js
https://raw.githubusercontent.com/danhenriquesc/hackerrank/master/algorithms/implementation/counting_valleys.py
