https://raw.githubusercontent.com/Chainsawkitten/CodeAbbeyProblems/master/src/Problem%2038/Problem%2038.cpp
https://raw.githubusercontent.com/KlaudioVito/CodeAbbey/master/QuadraticEquation.java
https://raw.githubusercontent.com/YetAnotherMinion/YAMScratch/master/CodeAbbey/c-sol/src/38.c
https://raw.githubusercontent.com/mmcdon20/code_abbey/master/src/main/scala/Abbey038.scala
https://raw.githubusercontent.com/Xzya/CodeAbbeySolutions/master/QuadraticEquation.py
https://raw.githubusercontent.com/JesseClarkND/codeabbey_in_C-NET/master/Quadratic%20Equation
http://rosettacode.org/wiki/Roots_of_a_quadratic_function#Ada
http://rosettacode.org/wiki/Roots_of_a_quadratic_function#C
http://rosettacode.org/wiki/Roots_of_a_quadratic_function#C.2B.2B
http://rosettacode.org/wiki/Roots_of_a_quadratic_function#Common_Lisp
http://rosettacode.org/wiki/Roots_of_a_quadratic_function#ERRE
http://rosettacode.org/wiki/Roots_of_a_quadratic_function#Forth
http://rosettacode.org/wiki/Roots_of_a_quadratic_function#Fortran
http://rosettacode.org/wiki/Roots_of_a_quadratic_function#GAP
http://rosettacode.org/wiki/Roots_of_a_quadratic_function#Go
http://rosettacode.org/wiki/Roots_of_a_quadratic_function#Haskell
http://rosettacode.org/wiki/Roots_of_a_quadratic_function#Java
http://rosettacode.org/wiki/Roots_of_a_quadratic_function#Julia
http://rosettacode.org/wiki/Roots_of_a_quadratic_function#Kotlin
http://rosettacode.org/wiki/Roots_of_a_quadratic_function#lambdatalk
http://rosettacode.org/wiki/Roots_of_a_quadratic_function#Liberty_BASIC
http://rosettacode.org/wiki/Roots_of_a_quadratic_function#Lua
http://rosettacode.org/wiki/Roots_of_a_quadratic_function#Maple
http://rosettacode.org/wiki/Roots_of_a_quadratic_function#MATLAB_.2F_Octave
http://rosettacode.org/wiki/Roots_of_a_quadratic_function#Octave
http://rosettacode.org/wiki/Roots_of_a_quadratic_function#Pascal
