https://raw.githubusercontent.com/mpillar/codeeval/master/1-moderate/magic-numbers/main.py
https://raw.githubusercontent.com/nikai3d/ce-challenges/master/moderate/magic_numbers.c
https://raw.githubusercontent.com/nikai3d/ce-challenges/master/moderate/magic_numbers.go
https://raw.githubusercontent.com/nikai3d/ce-challenges/master/moderate/magic_numbers.hs
https://raw.githubusercontent.com/nikai3d/ce-challenges/master/moderate/magic_numbers.lua
https://raw.githubusercontent.com/TheCK/codeChallenges/master/codeEval/src/main/java/org/ck/codeEval/medium/magicNumbers/Main.java
