https://www.mathblog.dk/project-euler-problem-7/
https://raw.githubusercontent.com/nayuki/Project-Euler-solutions/master/haskell/p007.hs
https://raw.githubusercontent.com/nayuki/Project-Euler-solutions/master/java/p007.java
https://raw.githubusercontent.com/nayuki/Project-Euler-solutions/master/mathematica/p007.mathematica
https://raw.githubusercontent.com/nayuki/Project-Euler-solutions/master/python/p007.py
https://raw.githubusercontent.com/zsiciarz/euler.rs/master/src/solutions/problem7.rs
https://raw.githubusercontent.com/samskivert/euler-scala/master/Euler007.scala
https://raw.githubusercontent.com/lilyball/projecteuler-ocaml/master/prob7.ml
https://raw.githubusercontent.com/necolas/project-euler/master/007/007.js
https://raw.githubusercontent.com/danielfm/euler-clojure/master/euler/problem_7.clj
https://raw.githubusercontent.com/eagletmt/project-euler-c/master/1-9/problem7.c
https://raw.githubusercontent.com/EaterOA/Euler/master/1-25/euler007.cpp
https://raw.githubusercontent.com/fedeisas/project-euler/master/07/run.php
https://raw.githubusercontent.com/johnmyleswhite/projecteuler.jl/master/007.jl
https://raw.githubusercontent.com/jpillora/euler-in-perl/master/007.pl
https://raw.githubusercontent.com/jmoiron/euler.go/master/007.go
