https://raw.githubusercontent.com/adityagupta1089/Codeforces-Solutions/master/P34A.java
https://raw.githubusercontent.com/fuwutu/CodeForces/master/34A%20-%20Reconnaissance%202.cpp
https://codemanic.wordpress.com/2014/09/03/codeforces-34a-reconnaissance-2/
https://raw.githubusercontent.com/Waqar-107/Codeforces/master/A-set/34A.%20Reconnaissance%202.c
