https://raw.githubusercontent.com/anomen-s/programming-challenges/master/root-me.org/App-System/ELF32-Format-string-bug-basic-1/run.sh
https://cysecguide.blogspot.com/2018/04/root-me-write-up-elf-x86-format-string.html
https://say2.tistory.com/entry/ELF32-Format-string-bug-basic-1
https://raw.githubusercontent.com/Hadopire/Root-me-App-Systeme/master/ELF32-Format_string_bug_basic_1/ELF32-Format_string_bug_basic_1.sh
https://github.com/s1syphu5/RootMe-Challenges/tree/master/System/ELF%20x86%20-%20Format%20string%20bug%20basic%201
