https://raw.githubusercontent.com/smokeleeteveryday/CTF_WRITEUPS/master/2016/BKPCTF/crypto/ltseorg/README.md
https://github.com/p4-team/ctf/tree/master/2016-03-06-bkpctf/crypto_4_ltseorg
https://raw.githubusercontent.com/VulnHub/ctf-writeups/master/2015/csaw/contacts.md
https://www.whitehatters.academy/csaw-2015-prequals-exploit-250-contacts/
http://geeksspeak.github.io/blog/2015/09/21/csaw-2015-pwn250-contacts/
http://charo-it.hatenablog.jp/entry/2015/09/23/144438
https://raw.githubusercontent.com/negasora/Some-CTF-Solutions/master/CSAW-Finals-2015/Slabs-of-Platinum---Crypto-500/README.md
http://blog.zairo.kr/entry/OverTheWire-%E2%80%93-Bandit-Level-16?category=569917
https://raw.githubusercontent.com/Lorenyx/OverTheWire-Solutions/master/bandit/level_16.md
https://www.youtube.com/watch?v=v8v2GSEkgug
https://rundata.wordpress.com/2013/03/21/overthewire-bandit-wargame-solutions-1-24/
https://raw.githubusercontent.com/Lorenyx/OverTheWire-Solutions/master/bandit/level_17.md

