https://forum.hackthebox.eu/discussion/656/minion-write-up-by-alamot
https://forum.hackthebox.eu/discussion/645/minion-write-up-by-0xea31
https://forum.hackthebox.eu/discussion/672/minion-error-code-exfiltration-by-booj
https://alamot.github.io/minion_writeup/
https://www.youtube.com/watch?v=IbVmpr6IFQU
http://www.hackingarticles.in/hack-the-box-minion-walkthrough/
https://drive.google.com/file/d/191msu2StlQvGuq7_pU9nzauYZEIkqYNN/view
