https://blog.ch4n3.me/155
https://go-madhat.github.io/Wargamekr-webChatting/
http://blog.naver.com/PostView.nhn?blogId=best0937&logNo=220713451098
https://jucksh0w.tistory.com/22
https://blog.choiys.kr/entry/Wargamekr-Web650web-chatting
https://hyunmini.tistory.com/114
https://posix.tistory.com/15?category=733859
