http://hackerorgsolution.blogspot.com.co/2014/09/upcount.html
https://github.com/luceatnobis/challenges/tree/master/hacker.org/upcount
https://raw.githubusercontent.com/charles-wangkai/hacker.org/master/challenge/UpCount.java
