https://raw.githubusercontent.com/tommilligan/OverTheWire/master/solutions/leviathan/leviathan0.sh
https://jhalon.github.io/over-the-wire-leviathan/
https://www.youtube.com/watch?v=I6Ns7R7paJY&t=134s
https://www.youtube.com/watch?v=dHyINzuYii8
https://www.youtube.com/watch?v=I6Ns7R7paJY
https://blog.zairo.kr/entry/OverTheWire-%E2%80%93-Leviathan-Level-0?category=570140
https://raw.githubusercontent.com/luceatnobis/challenges/master/overthewire.org/leviathan/leviathan
https://raw.githubusercontent.com/Lorenyx/OverTheWire-Solutions/master/leviathan/level_0.md
https://sithlab.tistory.com/176?category=713646
https://raw.githubusercontent.com/USCGA/writeups/master/overthewire/leviathan/level0/README.md
https://angrypig7.github.io/leviathan/2017/08/25/leviathan-0/
https://cplusperks.com/leviathan/#level0
https://raw.githubusercontent.com/milescrabill/overthewire-solutions/master/Leviathan.md
http://www.voidcn.com/article/p-nnoagzff-vt.html
